Data Cleaning and Filtering
…
Variables like worry, prepared, homeloc, gender, income, politics are supposed to be categorical and not numeric. We can easily convert them using mutate_at() function from the dplyr package (also tidyverse)

# Converting data types
library(dplyr)
library(magrittr) # for %>%
hurricane %>% mutate_at(c("worry", "prepared", "homeloc", "gender", "income", "politics"), as.factor)

## # A tibble: 996 x 13
##    nstorm worry nevac prepared homeloc nyear gender income politics   age zone    lat
##     <int> <fct> <int> <fct>    <fct>   <int> <fct>  <fct>  <fct>    <int> <fct> <dbl>
##  1      2 3         0 3        2          86 1      4      3           86 A      41.3
##  2      1 4         0 3        3          25 1      <NA>   <NA>        52 A      41.3
##  3      3 4         0 3        3          19 2      6      2           83 A      41.3
##  4      3 6         1 1        1          52 1      5      3           64 A      41.2
##  5      2 1         0 2        3          15 1      5      3           66 A      41.3
##  6      5 4         0 2        1          23 2      <NA>   3           76 A      41.3
##  7      3 6         1 3        3          36 2      <NA>   3           37 A      41.3
##  8      5 4         0 3        3          50 2      <NA>   3           50 A      41.2
##  9      1 3         0 3        3           4 1      3      1           38 A      41.1
## 10      2 6         0 2        2          17 2      6      2           50 A      41.1
## # … with 986 more rows, and 1 more variable: long <dbl>
…
As we can see, both variables are not normally distributed but skewed. And there are several method of treating such variables based on the objective of the analysis: log-transformation, conversion to categorical variables, or simply removing the outliers, etc.

We can also notice from the summary above that the there are missing values (NA) as well. They can also be detected using anyNA(). And the best way to treat them is by removing all of the corresponding observations using drop_na() from the tidyr package. Or, in some cases, removing the variable itself.

tidyr::drop_na(hurricane)

## # A tibble: 818 x 13
##    nstorm worry nevac prepared homeloc nyear gender income politics   age zone    lat
##     <int> <int> <int>    <int>   <int> <int>  <int>  <int>    <int> <int> <fct> <dbl>
##  1      2     3     0        3       2    86      1      4        3    86 A      41.3
##  2      3     4     0        3       3    19      2      6        2    83 A      41.3
##  3      3     6     1        1       1    52      1      5        3    64 A      41.2
##  4      2     1     0        2       3    15      1      5        3    66 A      41.3
##  5      1     3     0        3       3     4      1      3        1    38 A      41.1
##  6      2     6     0        2       2    17      2      6        2    50 A      41.1
##  7      3     5     0        2       3    70      1      4        4    71 A      41.3
##  8      2     7     0        2       1    24      2      5        2    60 A      41.3
##  9      2     5     0        2       2    18      2      5        2    55 A      41.3
## 10      1     3     1        3       2     2      1      6        4    51 A      41.0
## # … with 808 more rows, and 1 more variable: long <dbl>
…
