Reading data
…
By default, the read_sav() will read the factor levels of non-numeric and non-character variables. If, instead, we want the labels, we can run the following code:

library(magrittr)
library(dplyr)
# Applying haven::as_factor() to labelled columns
# Here, we already know that variables Zone, Q4 and Q50 are not factor variables.
data %>% mutate_at(vars(-Zone, -Q4, -Q50), as_factor)

## # A tibble: 1,130 x 9
##    Zone     Q4 Q5                 Q6    Q7                  Q10     Q50 Q51    Q59              
##    <chr> <dbl> <fct>              <fct> <fct>               <fct> <dbl> <fct>  <fct>            
##  1 A         2 3                  0     Moderately Prepared No     1928 Male   $70,000-$99,999  
##  2 A         1 4                  0     Moderately Prepared No     1962 Male   <NA>             
##  3 A         3 4                  0     Moderately Prepared No     1931 Female Over $200,000    
##  4 A         3 6                  1     Fully Prepared      No     1950 Male   $100,000-$199,999
##  5 A         2 Not Worried At All 0     Very Prepared       No     1948 Male   $100,000-$199,999
##  6 A         5 4                  0     Very Prepared       No     1938 Female <NA>             
##  7 A         3 6                  1     Moderately Prepared No     1977 Female <NA>             
##  8 A         5 4                  0     Moderately Prepared No     1964 Female <NA>             
##  9 A         1 3                  0     Moderately Prepared No     1976 Male   $40,000-$69,999  
## 10 A         2 6                  0     Very Prepared       No     1964 Female Over $200,000    
## # … with 1,120 more rows
…
