Wrangling data
…
1.5 Pivoting the dataset

In some cases, we may want to split a column based on values, or merge multiple columns into fewer columns. These process can be done using tidyr package. For example, to convert the dataframe into long-format with only Zone, question, and value as columns:

library(tidyr)
# We have to pivot by variable type
# Pivot longer for factor variables
pivoted.longer <- data %>% 
  select_if(is.factor) %>% 
  pivot_longer(-Zone, names_to = "question", values_to = "value")
pivoted.longer

## # A tibble: 5,380 x 3
##    Zone  question value              
##    <fct> <chr>    <fct>              
##  1 A     Q5       3                  
##  2 A     Q7       Moderately Prepared
##  3 A     Q10      No                 
##  4 A     Q51      Male               
##  5 A     Q59      $70,000-$99,999    
##  6 A     Q5       4                  
##  7 A     Q7       Moderately Prepared
##  8 A     Q10      No                 
##  9 A     Q51      Male               
## 10 A     Q59      <NA>               
## # … with 5,370 more rows

# Then we can reshape it back to the original
pivoted.wider <- pivoted.longer %>%
  group_by(question) %>% mutate(row = row_number()) %>% 
  pivot_wider(names_from = question, values_from = value) %>% 
  select(-row)
pivoted.wider

## # A tibble: 1,076 x 6
##    Zone  Q5                 Q7                  Q10   Q51    Q59              
##    <fct> <fct>              <fct>               <fct> <fct>  <fct>            
##  1 A     3                  Moderately Prepared No    Male   $70,000-$99,999  
##  2 A     4                  Moderately Prepared No    Male   <NA>             
##  3 A     4                  Moderately Prepared No    Female Over $200,000    
##  4 A     6                  Fully Prepared      No    Male   $100,000-$199,999
##  5 A     Not Worried At All Very Prepared       No    Male   $100,000-$199,999
##  6 A     4                  Very Prepared       No    Female <NA>             
##  7 A     6                  Moderately Prepared No    Female <NA>             
##  8 A     4                  Moderately Prepared No    Female <NA>             
##  9 A     3                  Moderately Prepared No    Male   $40,000-$69,999  
## 10 A     6                  Very Prepared       No    Female Over $200,000    
## # … with 1,066 more rows

tidyr::spread() and tidyr::gather() are the outdated equivalent of tidyr::pivot_wider() and tidyr::pivot_longer().

To merge or split columns, we can use tidyr::unite() or tidyr::separate(). For example, to merge Q7 and Q10:

# Creating a new column with responses from both Q7 and Q10
merged <- data %>% unite("Q7_Q10", Q7:Q10, sep = "__", remove = TRUE, na.rm = FALSE)
merged

## # A tibble: 1,076 x 8
##    Zone     Q4 Q5                    Q6 Q7_Q10                    Q50 Q51    Q59              
##    <fct> <dbl> <fct>              <dbl> <chr>                   <dbl> <fct>  <fct>            
##  1 A         2 3                      0 Moderately Prepared__No  1928 Male   $70,000-$99,999  
##  2 A         1 4                      0 Moderately Prepared__No  1962 Male   <NA>             
##  3 A         3 4                      0 Moderately Prepared__No  1931 Female Over $200,000    
##  4 A         3 6                      1 Fully Prepared__No       1950 Male   $100,000-$199,999
##  5 A         2 Not Worried At All     0 Very Prepared__No        1948 Male   $100,000-$199,999
##  6 A         5 4                      0 Very Prepared__No        1938 Female <NA>             
##  7 A         3 6                      1 Moderately Prepared__No  1977 Female <NA>             
##  8 A         5 4                      0 Moderately Prepared__No  1964 Female <NA>             
##  9 A         1 3                      0 Moderately Prepared__No  1976 Male   $40,000-$69,999  
## 10 A         2 6                      0 Very Prepared__No        1964 Female Over $200,000    
## # … with 1,066 more rows

# To split it back
merged %>% separate(Q7_Q10, c("Q7", "Q10"), sep = "__", remove = TRUE)

## # A tibble: 1,076 x 9
##    Zone     Q4 Q5                    Q6 Q7                  Q10     Q50 Q51    Q59              
##    <fct> <dbl> <fct>              <dbl> <chr>               <chr> <dbl> <fct>  <fct>            
##  1 A         2 3                      0 Moderately Prepared No     1928 Male   $70,000-$99,999  
##  2 A         1 4                      0 Moderately Prepared No     1962 Male   <NA>             
##  3 A         3 4                      0 Moderately Prepared No     1931 Female Over $200,000    
##  4 A         3 6                      1 Fully Prepared      No     1950 Male   $100,000-$199,999
##  5 A         2 Not Worried At All     0 Very Prepared       No     1948 Male   $100,000-$199,999
##  6 A         5 4                      0 Very Prepared       No     1938 Female <NA>             
##  7 A         3 6                      1 Moderately Prepared No     1977 Female <NA>             
##  8 A         5 4                      0 Moderately Prepared No     1964 Female <NA>             
##  9 A         1 3                      0 Moderately Prepared No     1976 Male   $40,000-$69,999  
## 10 A         2 6                      0 Very Prepared       No     1964 Female Over $200,000    
## # … with 1,066 more rows
…
Using select(), mutate(), filter(), etc.

As we can see, both variables are not normally distributed but skewed. And there are several method of treating such variables based on the objective of the analysis: log-transformation, conversion to categorical variables, or simply removing the outliers, etc.

We can also notice from the summary above that the there are missing values (NA) as well. They can also be detected using anyNA(). And the best way to treat them is by removing all of the corresponding observations using drop_na() from the tidyr package. Or, in some cases, removing the variable itself.

tidyr::drop_na(hurricane)

## # A tibble: 964 x 13
##    nstorm worry     nevac prepared  homeloc   nyear     gender    income    politics  age       zone    lat  long
##     <dbl> <list>    <dbl> <list>    <list>    <list>    <list>    <list>    <list>    <list>    <chr> <dbl> <dbl>
##  1      2 <dbl [1]>     0 <dbl [1]> <dbl [1]> <dbl [1]> <dbl [1]> <dbl [1]> <dbl [1]> <dbl [1]> A      41.3 -72.8
##  2      1 <dbl [1]>     0 <dbl [1]> <dbl [1]> <dbl [1]> <dbl [1]> <chr [1]> <chr [1]> <dbl [1]> A      41.3 -72.1
##  3      3 <dbl [1]>     0 <dbl [1]> <dbl [1]> <dbl [1]> <dbl [1]> <dbl [1]> <dbl [1]> <dbl [1]> A      41.3 -72.8
##  4      3 <dbl [1]>     1 <dbl [1]> <dbl [1]> <dbl [1]> <dbl [1]> <dbl [1]> <dbl [1]> <dbl [1]> A      41.2 -73.1
##  5      2 <dbl [1]>     0 <dbl [1]> <dbl [1]> <dbl [1]> <dbl [1]> <dbl [1]> <dbl [1]> <dbl [1]> A      41.3 -72.9
##  6      5 <dbl [1]>     0 <dbl [1]> <dbl [1]> <dbl [1]> <dbl [1]> <chr [1]> <dbl [1]> <dbl [1]> A      41.3 -72.6
##  7      3 <dbl [1]>     1 <dbl [1]> <dbl [1]> <dbl [1]> <dbl [1]> <chr [1]> <dbl [1]> <dbl [1]> A      41.3 -72.9
##  8      5 <dbl [1]>     0 <dbl [1]> <dbl [1]> <dbl [1]> <dbl [1]> <chr [1]> <dbl [1]> <dbl [1]> A      41.2 -73.2
##  9      1 <dbl [1]>     0 <dbl [1]> <dbl [1]> <dbl [1]> <dbl [1]> <dbl [1]> <dbl [1]> <dbl [1]> A      41.1 -73.4
## 10      2 <dbl [1]>     0 <dbl [1]> <dbl [1]> <dbl [1]> <dbl [1]> <dbl [1]> <dbl [1]> <dbl [1]> A      41.1 -73.4
## # … with 954 more rows
…
