Section 6 Analysis | EDS Vignettes
…
6.1.1 Variable Standardization

Standardizing variables must be performed before any regression or other statistical analysis are done with the data. It can be done by rescaling the variables using the z-score formula. Standardized variables will then have a mean of 0 and a standard deviation of 1.

# z-score formula
get.z.score <- function(X){
  (X-mean(X, na.rm=T))/sd(X, na.rm=T)
}
# standardizing the pretest and posttest variables
Zdata <- data %>% mutate(across(ends_with('_pre')|ends_with('_post'), get.z.score, .names='Z{col}'))
Zdata

## # A tibble: 1,620 x 19
##    subjID   GWHap GWworry ex_ppgender ex_ppage raceCat ex_ppstaten moral_pre
##     <dbl> <dbl+l> <dbl+l>   <dbl+lbl>    <dbl> <dbl+l>   <dbl+lbl> <dbl+lbl>
##  1    101 7 [I s… 6 [6]    2 [Female]       69 2 [Bla… 36 [Ohio]   4 [4]    
##  2    102 4 [I a… 3 [3]    1 [Male]         30 1 [Whi… 41 [South … 4 [4]    
##  3    103 6 [6]   7 [I a…  2 [Female]       31 1 [Whi… 36 [Ohio]   5 [5]    
##  4    104 7 [I s… 6 [6]    2 [Female]       41 1 [Whi… 43 [Tennes… 7 [Very …
##  5    105 2 [2]   2 [2]    2 [Female]       28 1 [Whi… 14 [Illino… 4 [4]    
##  6    106 5 [5]   4 [4]    2 [Female]       52 1 [Whi… 33 [New Yo… 4 [4]    
##  7    107 5 [5]   6 [6]    1 [Male]         36 4 [His… 36 [Ohio]   7 [Very …
##  8    108 7 [I s… 6 [6]    2 [Female]       19 3 [Oth… 33 [New Yo… 6 [6]    
##  9    109 6 [6]   5 [5]    1 [Male]         21 2 [Bla… 34 [North … 5 [5]    
## 10    110 7 [I s… 5 [5]    1 [Male]         26 1 [Whi… 25 [Missis… 6 [6]    
## # … with 1,610 more rows, and 11 more variables: relig_pre <dbl+lbl>,
## #   health_pre <dbl+lbl>, moral_post <dbl+lbl>, relig_post <dbl+lbl>,
## #   health_post <dbl+lbl>, Zmoral_pre <dbl>, Zrelig_pre <dbl>,
## #   Zhealth_pre <dbl>, Zmoral_post <dbl>, Zrelig_post <dbl>, Zhealth_post <dbl>
…
