Section 4 Cleaning | EDS Vignettes
…
anyNA(data$nstorm)

## [1] TRUE

summary(data$nstorm)

##    Min. 1st Qu.  Median    Mean 3rd Qu.    Max.    NA's 
##   0.000   2.000   2.000   2.599   3.000  20.000      50

The easiest way to handle them is by removing all of the corresponding observations using tidyr::drop_na(). Or, in some cases, removing the variable itself.

tidyr::drop_na(data)

## # A tibble: 775 x 13
##    nstorm worry nevac prepared homeloc nyear gender income politics   age zone 
##     <int> <int> <int>    <int>   <int> <int>  <int>  <int>    <int> <int> <chr>
##  1      2     3     0        3       2    86      1      4        3    86 A    
##  2      3     6     1        1       1    52      1      5        3    64 A    
##  3      2     1     0        2       3    15      1      5        3    66 A    
##  4      1     3     0        3       3     4      1      3        1    38 A    
##  5      2     6     0        2       2    17      2      6        2    50 A    
##  6      3     5     0        2       3    70      1      4        4    71 A    
##  7      2     7     0        2       1    24      2      5        2    60 A    
##  8      2     5     0        2       2    18      2      5        2    55 A    
##  9      1     3     1        3       2     2      1      6        4    51 A    
## 10      2     3     1        2       1    64      2      5        3    64 A    
## # … with 765 more rows, and 2 more variables: lat <dbl>, long <dbl>
…
