Section 2 Reading | EDS Vignettes
…
SPSS is a statistical software package that stores data in its own format. You will occasionally encounter these types of files if working on a project with somebody who prefers SPSS. This requires its own package called ‘haven’.

library(haven)
data <- read_sav("data/spss-sample.sav")

By default, the read_sav() will read the factor levels of non-numeric and non-character variables. If instead we want the labels, we can run the following code:

library(magrittr)
library(dplyr)
# Applying haven::as_factor() to labelled columns Here, we already know that
# variables Zone, Q4 and Q50 are not factor variables.
data %>% mutate_at(vars(-Zone, -Q4, -Q50), as_factor)

## # A tibble: 1,130 x 9
##    Zone     Q4 Q5            Q6    Q7             Q10     Q50 Q51   Q59         
##    <chr> <dbl> <fct>         <fct> <fct>          <fct> <dbl> <fct> <fct>       
##  1 A         2 3             0     Moderately Pr… No     1928 Male  $70,000-$99…
##  2 A         1 4             0     Moderately Pr… No     1962 Male  <NA>        
##  3 A         3 4             0     Moderately Pr… No     1931 Fema… Over $200,0…
##  4 A         3 6             1     Fully Prepared No     1950 Male  $100,000-$1…
##  5 A         2 Not Worried … 0     Very Prepared  No     1948 Male  $100,000-$1…
##  6 A         5 4             0     Very Prepared  No     1938 Fema… <NA>        
##  7 A         3 6             1     Moderately Pr… No     1977 Fema… <NA>        
##  8 A         5 4             0     Moderately Pr… No     1964 Fema… <NA>        
##  9 A         1 3             0     Moderately Pr… No     1976 Male  $40,000-$69…
## 10 A         2 6             0     Very Prepared  No     1964 Fema… Over $200,0…
## # … with 1,120 more rows
…
