Section 4 Structuring | EDS Vignettes
…
4.6 Pivoting the dataset

In some cases, we may want to split a column based on values, or merge multiple columns into fewer columns. A classic example is with time-stamped data. Sometimes we want rows to be days, with individual responses recorded as columns, and sometimes we want each row to be an individual, with columns representing days. It just depends on what the data are modelling. This process can be done using the tidyr package. For example, to convert the dataframe into long-format with only Zone, question, and value as columns:

# Read in the necessary package
library(tidyr)

# We have to pivot by variable type
# Pivot longer for factor variables
pivoted.longer <- data %>% 
  select_if(is.factor) %>% 
  pivot_longer(-Zone, names_to = "question", values_to = "value")
pivoted.longer

## # A tibble: 6,456 x 3
##    Zone  question value
##    <fct> <chr>    <fct>
##  1 A     Q5       3    
##  2 A     Q6       0    
##  3 A     Q7       3    
##  4 A     Q10      2    
##  5 A     Q51      1    
##  6 A     Q59      4    
##  7 A     Q5       4    
##  8 A     Q6       0    
##  9 A     Q7       3    
## 10 A     Q10      2    
## # … with 6,446 more rows

# Then we can reshape it back to the original
pivoted.wider <- pivoted.longer %>%
  group_by(question) %>% mutate(row = row_number()) %>% 
  pivot_wider(names_from = question, values_from = value) %>% 
  select(-row)
pivoted.wider

## # A tibble: 1,076 x 7
##    Zone  Q5    Q6    Q7    Q10   Q51   Q59  
##    <fct> <fct> <fct> <fct> <fct> <fct> <fct>
##  1 A     3     0     3     2     1     4    
##  2 A     4     0     3     2     1     <NA> 
##  3 A     4     0     3     2     2     6    
##  4 A     6     1     1     2     1     5    
##  5 A     1     0     2     2     1     5    
##  6 A     4     0     2     2     2     <NA> 
##  7 A     6     1     3     2     2     <NA> 
##  8 A     4     0     3     2     2     <NA> 
##  9 A     3     0     3     2     1     3    
## 10 A     6     0     2     2     2     6    
## # … with 1,066 more rows

tidyr::spread() and tidyr::gather() are the outdated equivalent of tidyr::pivot_wider() and tidyr::pivot_longer().

To merge or split columns, we can use tidyr::unite() or tidyr::separate(). For example, to merge Q7 and Q10:

# Creating a new column with responses from both Q7 and Q10
merged <- data %>% unite("Q7_Q10", Q7:Q10, sep = "__", remove = TRUE, na.rm = FALSE)
merged

## # A tibble: 1,076 x 9
##    Zone     Q4 Q5    Q6    Q7_Q10   Q50 Q51   Q59     age
##    <fct> <dbl> <fct> <fct> <chr>  <dbl> <fct> <fct> <dbl>
##  1 A         2 3     0     3__2    1928 1     4        92
##  2 A         1 4     0     3__2    1962 1     <NA>     58
##  3 A         3 4     0     3__2    1931 2     6        89
##  4 A         3 6     1     1__2    1950 1     5        70
##  5 A         2 1     0     2__2    1948 1     5        72
##  6 A         5 4     0     2__2    1938 2     <NA>     82
##  7 A         3 6     1     3__2    1977 2     <NA>     43
##  8 A         5 4     0     3__2    1964 2     <NA>     56
##  9 A         1 3     0     3__2    1976 1     3        44
## 10 A         2 6     0     2__2    1964 2     6        56
## # … with 1,066 more rows

# To split it back
merged %>% separate(Q7_Q10, c("Q7", "Q10"), sep = "__", remove = TRUE)

## # A tibble: 1,076 x 10
##    Zone     Q4 Q5    Q6    Q7    Q10     Q50 Q51   Q59     age
##    <fct> <dbl> <fct> <fct> <chr> <chr> <dbl> <fct> <fct> <dbl>
##  1 A         2 3     0     3     2      1928 1     4        92
##  2 A         1 4     0     3     2      1962 1     <NA>     58
##  3 A         3 4     0     3     2      1931 2     6        89
##  4 A         3 6     1     1     2      1950 1     5        70
##  5 A         2 1     0     2     2      1948 1     5        72
##  6 A         5 4     0     2     2      1938 2     <NA>     82
##  7 A         3 6     1     3     2      1977 2     <NA>     43
##  8 A         5 4     0     3     2      1964 2     <NA>     56
##  9 A         1 3     0     3     2      1976 1     3        44
## 10 A         2 6     0     2     2      1964 2     6        56
## # … with 1,066 more rows
…
